<svg id="Layer_1" data-name="Layer 1" xmlns="http://www.w3.org/2000/svg" viewBox="0 0 17.11 18">
    <defs>
        <style>
            .cls-1 {
                fill: none;
                stroke: #fff;
                stroke-linecap: round;
                stroke-linejoin: round;
                stroke-width: 2px;
            }
        </style>
    </defs>
    <title>Assets</title>
    <path class="cls-1" d="M9.89,1H7.22V2.94A5.79,5.79,0,0,0,2.78,8.56v2.93L1,13.26v2H6.78a1.78,1.78,0,1,0,3.56,0h5.78v-2l-1.78-1.78V8.56A5.79,5.79,0,0,0,9.89,2.94ZM8.46,5.71A4,4,0,0,0,5.59,9m1.18,6.22h3.56M7.22,2.94a6.7,6.7,0,0,1,2.67,0" />
</svg>