<svg id="Layer_1" data-name="Layer 1" xmlns="http://www.w3.org/2000/svg" viewBox="0 0 28 23">
  <defs>
    <style>
      .cls-1 {
      fill: none;
      stroke: #fff;
      stroke-linecap: round;
      stroke-linejoin: round;
      stroke-width: 2px;
      }
    </style>
  </defs>
  <title>Assets</title>
  <line class="cls-1" x1="18.5" y1="5.5" x2="26.5" y2="5.5" />
  <line class="cls-1" x1="22.5" y1="1.5" x2="22.5" y2="9.5" />
  <circle class="cls-1" cx="10.5" cy="5.5" r="4" />
  <path class="cls-1" d="M19.5,21.5a9,9,0,0,0-18,0Z" />
</svg>