<svg id="Layer_1" data-name="Layer 1" xmlns="http://www.w3.org/2000/svg" viewBox="0 0 19 14">
  <defs>
    <style>
      .cls-1 {
      fill: none;
      stroke: #f39c12;
      stroke-linecap: round;
      stroke-linejoin: round;
      stroke-width: 2px;
      }

      .cls-2 {
      fill: #f39c12;
      }
    </style>
  </defs>
  <title>Assets</title>
  <polyline class="cls-1" points="6.97 1 1 6.99 7 13" />
  <line class="cls-1" x1="13" y1="6.98" x2="1" y2="6.98" />
  <path class="cls-2" d="M17,5a2,2,0,1,1-2,2A2,2,0,0,1,17,5Z" />
</svg>